{
  "project_info": {
    "project_number": "480968354862",
    "project_id": "flash-chat-app-e3edb",
    "storage_bucket": "flash-chat-app-e3edb.appspot.com"
  },
  "client": [
    {
      "client_info": {
        "mobilesdk_app_id": "1:480968354862:android:020410c5bf79e02e9583bf",
        "android_client_info": {
          "package_name": "com.example.flashapp"
        }
      },
      "oauth_client": [
        {
          "client_id": "480968354862-ajr567c5jqcltvngegp34rmvr691mg7v.apps.googleusercontent.com",
          "client_type": 3
        }
      ],
      "api_key": [
        {
          "current_key": "AIzaSyBQT3lXEHtRj-0R9n9N13Ka2Ych0oy9elM"
        }
      ],
      "services": {
        "appinvite_service": {
          "other_platform_oauth_client": [
            {
              "client_id": "480968354862-ajr567c5jqcltvngegp34rmvr691mg7v.apps.googleusercontent.com",
              "client_type": 3
            }
          ]
        }
      }
    }
  ],
  "configuration_version": "1"
}